{
    "code": 0,
    "msg": "",
    "count": 1000,
    "data": [
        {
            "sid": 1,
            "title": "主体工程A重大事件标题",
            "content": "主体工程A标合同待建设合同待审核",
            "executor": "张飞",
            "auditor": "李利",
            "originator": "刘备",
            "createdate": "2019-01-12",
            "enddate": "2019-03-12",
            "warningtime": "2018-01-12",
            "rank": "重要",
            "state": "待审核",
            "yujing": "<a class='layui-btn layui-btn-xs layui-btn-danger'>紧急</a>"
        },
        {
            "sid": 2,
            "title": "主体工程C标合同待审核事件",
            "content": "主体工程A标合同待建设合同待审核",
            "executor": "张飞",
            "auditor": "李利",
            "originator": "刘备",
            "createdate": "2019-01-12",
            "enddate": "2019-03-12",
            "warningtime": "2018-01-12",
            "rank": "一般",
            "state": "执行中",
            "yujing": ""

        },
        {
            "sid": 3,
            "title": "主体工程B标合同待审核事件",
            "content": "主体工程A标合同待建设合同待审核",
            "executor": "张飞",
            "auditor": "李利",
            "originator": "刘备",
            "createdate": "2019-01-12",
            "enddate": "2019-03-12",
            "warningtime": "2018-01-12",
            "rank": "非常重要",
            "state": "完成",
            "yujing": "<a class='layui-btn layui-btn-xs layui-btn-danger'>紧急</a>"

        },
        {
            "sid": 4,
            "title": "主体工程B标合同待审核事件",
            "content": "主体工程A标合同待建设合同待审核",
            "executor": "张飞",
            "auditor": "李利",
            "originator": "刘备",
            "createdate": "2019-01-12",
            "enddate": "2019-03-12",
            "warningtime": "2018-01-12",
            "rank": "非常重要",
            "state": "驳回执行",
            "yujing": ""

        }
    ]

}


