{
    "code": 0,
    "msg": "",
    "count": 1000,
    "data": [
        {
            "qid": 1,
            "title": "消防通道内杂物过多",
            "content": "消防通道内杂物过多",
            "executor": "张飞",
            "auditor": "李利",
            "originator": "刘备",
            "createdate": "2019-01-12",
            "enddate": "2019-03-12",
            "warningtime": "2018-01-12",
            "rank": "重要",
            "state": "待审核",
            "yujing": "<a class='layui-btn layui-btn-xs layui-btn-danger'>紧急</a>"

        },
        {
            "qid": 2,
            "title": "施工现场未按规定佩戴安全保护设施",
            "content": "施工现场未按规定佩戴安全保护设施",
            "executor": "张飞",
            "auditor": "李利",
            "originator": "刘备",
            "createdate": "2019-01-12",
            "enddate": "2019-03-12",
            "warningtime": "2018-01-12",
            "rank": "一般",
            "state": "执行中",
            "yujing": ""

        },
        {
            "qid": 3,
            "title": "吊塔、物料提升机各层卸料平台安全门未按规定关闭",
            "content": "吊塔、物料提升机各层卸料平台安全门未按规定关闭",
            "executor": "张飞",
            "auditor": "李利",
            "originator": "刘备",
            "createdate": "2019-01-12",
            "enddate": "2019-03-12",
            "warningtime": "2018-01-12",
            "rank": "非常重要",
            "state": "完成",
            "yujing": "<a class='layui-btn layui-btn-xs layui-btn-danger'>紧急</a>"

        },
        {
            "qid": 4,
            "title": "吊塔机电待维修",
            "content": "吊塔机电待维修",
            "executor": "张飞",
            "auditor": "李利",
            "originator": "刘备",
            "createdate": "2019-01-12",
            "enddate": "2019-03-12",
            "warningtime": "2018-01-12",
            "rank": "非常重要",
            "state": "驳回执行",
            "yujing": ""

        }
    ]

}


