[
    {
        "id": 1,
        "name": "崇左体育中心项目建设需求分析",
        "type": "建设需求分析",
        "firstparty": "城建",
        "subordinate": "棚户区一期",
        "partyb": "社区服务中心",
        "signingpeople": "李利",
        "shenheren": "黄巨",
        "date": "2018/1/12",
        "money": 7060,
        "process": "终稿",
        "laiyuan": "政府指定下达"
    },
    {
        "id": 2,
        "name": "崇左体育中心项目主体工程B标需求分析",
        "type": "建设需求分析",
        "firstparty": "城建",
        "subordinate": "棚户区一期",
        "partyb": "幼儿园",
        "signingpeople": "张浩",
        "shenheren": "黄巨",
        "date": "2018/3/4",
        "money": 4001,
        "process": "草稿",
        "laiyuan": "城投公司"
    },
    {
        "id": 3,
        "name": "崇左体育中心项目主体工程C标需求分析",
        "type": "建设需求分析",
        "firstparty": "城建",
        "subordinate": "棚户区一期",
        "partyb": "住宅楼",
        "signingpeople": "王力",
        "shenheren": "黄巨",
        "date": "2018/6/5",
        "money": 17009.155,
        "process": "终稿",
        "laiyuan": "城投公司"

    },
    {
        "id": 4,
        "name": "崇左体育中心项目主体工程D标需求分析",
        "type": "建设需求分析",
        "firstparty": "城建",
        "subordinate": "棚户区一期",
        "partyb": "住宅楼",
        "signingpeople": "张三",
        "shenheren": "黄巨",
        "date": "2018/6/9",
        "money": 16792,
        "process": "审核中",
        "laiyuan": "城投公司"

    }
]